module gitlab.com/gitlab-org/labkit

go 1.21

require (
	cloud.google.com/go/profiler v0.1.0
	contrib.go.opencensus.io/exporter/stackdriver v0.13.8
	github.com/getsentry/raven-go v0.2.0
	github.com/getsentry/sentry-go v0.13.0
	github.com/grpc-ecosystem/go-grpc-middleware v1.3.0
	github.com/lightstep/lightstep-tracer-go v0.25.0
	github.com/oklog/ulid/v2 v2.0.2
	github.com/opentracing/opentracing-go v1.2.0
	github.com/prometheus/client_golang v1.20.4
	github.com/prometheus/client_model v0.6.1
	github.com/sebest/xff v0.0.0-20210106013422-671bd2870b3a
	github.com/sirupsen/logrus v1.9.3
	github.com/stretchr/testify v1.9.0
	github.com/uber/jaeger-client-go v2.29.1+incompatible
	gitlab.com/gitlab-org/go/reopen v1.0.0
	go.opencensus.io v0.23.0
	google.golang.org/api v0.54.0
	google.golang.org/grpc v1.40.0
	gopkg.in/DataDog/dd-trace-go.v1 v1.32.0
)

require (
	cloud.google.com/go v0.92.2 // indirect
	cloud.google.com/go/trace v0.1.0 // indirect
	github.com/DataDog/datadog-go v4.4.0+incompatible // indirect
	github.com/DataDog/sketches-go v1.0.0 // indirect
	github.com/HdrHistogram/hdrhistogram-go v1.1.1 // indirect
	github.com/Microsoft/go-winio v0.5.0 // indirect
	github.com/StackExchange/wmi v0.0.0-20190523213315-cbe66965904d // indirect
	github.com/aws/aws-sdk-go v1.37.0 // indirect
	github.com/beorn7/perks v1.0.1 // indirect
	github.com/census-instrumentation/opencensus-proto v0.3.0 // indirect
	github.com/certifi/gocertifi v0.0.0-20210507211836-431795d63e8d // indirect
	github.com/cespare/xxhash/v2 v2.3.0 // indirect
	github.com/davecgh/go-spew v1.1.1 // indirect
	github.com/go-ole/go-ole v1.2.4 // indirect
	github.com/gogo/protobuf v1.3.2 // indirect
	github.com/golang/groupcache v0.0.0-20200121045136-8c9f03a8e57e // indirect
	github.com/golang/protobuf v1.5.2 // indirect
	github.com/google/go-cmp v0.6.0 // indirect
	github.com/google/pprof v0.0.0-20210804190019-f964ff605595 // indirect
	github.com/google/uuid v1.1.2 // indirect
	github.com/googleapis/gax-go/v2 v2.0.5 // indirect
	github.com/jmespath/go-jmespath v0.4.0 // indirect
	github.com/klauspost/compress v1.17.9 // indirect
	github.com/kylelemons/godebug v1.1.0 // indirect
	github.com/lightstep/lightstep-tracer-common/golang/gogo v0.0.0-20210210170715-a8dfcb80d3a7 // indirect
	github.com/munnerz/goautoneg v0.0.0-20191010083416-a7dc8b61c822 // indirect
	github.com/onsi/ginkgo v1.10.3 // indirect
	github.com/onsi/gomega v1.7.1 // indirect
	github.com/philhofer/fwd v1.1.1 // indirect
	github.com/pkg/errors v0.9.1 // indirect
	github.com/pmezard/go-difflib v1.0.0 // indirect
	github.com/prometheus/common v0.60.0 // indirect
	github.com/prometheus/procfs v0.15.1 // indirect
	github.com/shirou/gopsutil/v3 v3.21.2 // indirect
	github.com/tinylib/msgp v1.1.2 // indirect
	github.com/tklauser/go-sysconf v0.3.4 // indirect
	github.com/tklauser/numcpus v0.2.1 // indirect
	github.com/uber/jaeger-lib v2.4.1+incompatible // indirect
	go.uber.org/atomic v1.4.0 // indirect
	golang.org/x/net v0.29.0 // indirect
	golang.org/x/oauth2 v0.23.0 // indirect
	golang.org/x/sync v0.8.0 // indirect
	golang.org/x/sys v0.25.0 // indirect
	golang.org/x/text v0.18.0 // indirect
	golang.org/x/time v0.0.0-20201208040808-7e3f01d25324 // indirect
	golang.org/x/xerrors v0.0.0-20200804184101-5ec99f83aff1 // indirect
	google.golang.org/appengine v1.6.7 // indirect
	google.golang.org/genproto v0.0.0-20210813162853-db860fec028c // indirect
	google.golang.org/protobuf v1.34.2 // indirect
	gopkg.in/yaml.v3 v3.0.1 // indirect
)
